Year	Marriages	Marriage Rate	Divorces and Annulments	Divorce and Annulment Rate
2009	72821	5.6	32460	2.5
2008	74935	5.8	32497	2.5
2007	76608	6	32782	2.6
2006	77959	6.1	32141	2.5
2005	77419	6.1	33380	2.6
2004	81157	6.4	33575	2.6
2003	82889	6.6	35037	2.8
2002	84288	6.7	37670	3
2001	89469	7.2	37294	3
2000	85799	6.9	39524	3.2
1999	86961	7.2	41112	3.4
1998	85515	7.1	41063	3.4
1997	94574	8	39981	3.4
1996	91187	7.7	40729	3.4
1995	93357	7.9	41856	3.5
1994	93430	8	43352	3.7
1993	91578	7.8	43216	3.7
1992	94500	8.1	43757	3.8
1991	94771	8.2	45813	4
1990	100632	8.8	45977	4
1989	85695	7.5	45877	4
1988	78302	6.9	45911	4
1987	95613	8.4	46986	4.1
1986	96189	8.4	45852	4
1985	97701	8.6	48885	4.3
1984	102418	9	48897	4.3
1983	103773	9.1	50356	4.4
1982	107023	9.4	49639	4.3
1981	109074	9.5	51789	4.5
1980	109823	9.6	50997	4.5
1978	105946	9.3	50311	4.4
1977	108100	9.5	48980	4.3
1976	110847	9.8	51810	4.6
1975	111459	9.9	50954	4.5
1974	116419	10.3	48361	4.3
1973	119843	10.7	45152	4
1972	118592	10.5	43092	3.8
1971	115826	10.3	40136	3.6
1970	115478	10.4	36450	3.3
1969	116532	10.6	35974	3.3
1968	112449	10.2	32119	2.9
1967	105295	9.6	28473	2.6
1966	102622	9.5	27862	2.6
1965	100978	9.4	24654	2.3
1961	88692	8.8	25973	2.6
1960	88029	8.7	21870	2.2
1959	87281	8.7	22700	2.3
1958	83400	8.4	20870	2.1
1964*	97171	9.2	21283	2
1963*	93240	9	20765	2
1962*	87645	8.5	18820	1.8
1979	108480	9.5	52133	4.6
